STUDBK,WEIGHT,DP_LUMPED,PRIMARY
20,10,NEPHRITIS,TRUE
21,10,TRAUMA,TRUE
24,10,NEOPLASIA,TRUE
34,10,NEPHRITIS,TRUE
69,10,NEPHRITIS,TRUE
130,10,BONE & JOINT DISEASE,TRUE
168,10,NEPHRITIS,TRUE
173,10,PNEUMONIA,TRUE
178,10,DEGENERATION,TRUE
183,10,NEOPLASIA,TRUE
230,10,INFLAM. DISEASE,TRUE
232,10,BONE & JOINT DISEASE,TRUE
238,10,TOXEMIA,TRUE
260,10,NEOPLASIA,TRUE
264,10,DEGENERATION,TRUE
266,10,BONE & JOINT DISEASE,TRUE
293,10,NEOPLASIA,TRUE
312,10,NEOPLASIA,TRUE
313,10,BONE & JOINT DISEASE,TRUE
323,10,VASCLUAR DISEASE,TRUE
326,10,NEOPLASIA,TRUE
350,10,DEGENERATION,TRUE
355,10,BONE & JOINT DISEASE,TRUE
358,10,BONE & JOINT DISEASE,TRUE
360,10,BONE & JOINT DISEASE,TRUE
361,10,BONE & JOINT DISEASE,TRUE
366,10,BONE & JOINT DISEASE,TRUE
369,10,NEPHRITIS,TRUE
372,10,CARDIOSIS,TRUE
395,10,NEPHRITIS,TRUE
396,10,NEOPLASIA,TRUE
429,10,SEPTICEMIA,TRUE
463,10,BONE & JOINT DISEASE,TRUE
551,10,NEURO. DISEASE,TRUE
565,10,NEOPLASIA,TRUE
583,10,BONE & JOINT DISEASE,TRUE
588,10,GASTROENTERITIS,TRUE
589,10,NEOPLASIA,TRUE
590,10,TRAUMA,TRUE
606,10,CONGEN. DEF,TRUE
608,10,NEOPLASIA,TRUE
609,10,NEOPLASIA,TRUE
611,10,DEGENERATION,TRUE
623,10,PERINATAL DEATH,TRUE
625,10,BONE & JOINT DISEASE,TRUE
628,10,PERINATAL DEATH,TRUE
629,10,ANESTHESIA,TRUE
670,10,ANESTHESIA,TRUE
719,10,PERINATAL DEATH,TRUE
725,10,PERINATAL DEATH,TRUE
727,10,PERINATAL DEATH,TRUE
730,10,NEOPLASIA,TRUE
734,10,NEOPLASIA,TRUE
735,10,NEPHRITIS,TRUE
737,10,NEPHRITIS,TRUE
739,10,VASCLUAR DISEASE,TRUE
741,10,NEOPLASIA,TRUE
743,10,NEOPLASIA,TRUE
744,10,CONGEN. DEF,TRUE
745,10,INFLAM. DISEASE,TRUE
746,10,DEGENERATION,TRUE
750,10,BONE & JOINT DISEASE,TRUE
751,10,SEPTICEMIA,TRUE
752,10,NEPHRITIS,TRUE
753,10,HYPOPLASIA,TRUE
755,10,DEGENERATION,TRUE
756,10,DEGENERATION,TRUE
757,10,TRAUMA,TRUE
758,10,INFLAM. DISEASE,TRUE
759,10,DEGENERATION,TRUE
767,10,DEGENERATION,TRUE
768,10,NEPHRITIS,TRUE
779,10,NEOPLASIA,TRUE
807,10,BONE & JOINT DISEASE,TRUE
843,10,NEOPLASIA,TRUE
844,10,NEOPLASIA,TRUE
845,10,BONE & JOINT DISEASE,TRUE
848,10,NEOPLASIA,TRUE
856,10,NEOPLASIA,TRUE
860,10,NEPHRITIS,TRUE
865,10,TOXEMIA,TRUE
866,10,NEOPLASIA,TRUE
868,10,THERMOREGULATION,TRUE
869,10,SEPTICEMIA,TRUE
876,10,BONE & JOINT DISEASE,TRUE
878,10,CONGEN. DEF,TRUE
879,10,ANESTHESIA,TRUE
898,10,TOXEMIA,TRUE
917,10,THERMOREGULATION,TRUE
948,10,BONE & JOINT DISEASE,TRUE
949,10,RICKETS,TRUE
951,10,DEGENERATION,TRUE
981,10,BONE & JOINT DISEASE,TRUE
1018,10,NEOPLASIA,TRUE
1069,10,NEOPLASIA,TRUE
1070,10,NEURO. DISEASE,TRUE
1076,10,DEGENERATION,TRUE
1078,10,SEPTICEMIA,TRUE
1079,10,NEOPLASIA,TRUE
1080,10,DEGENERATION,TRUE
1083,10,PERINATAL DEATH,TRUE
1084,10,PERINATAL DEATH,TRUE
1086,10,BONE & JOINT DISEASE,TRUE
1087,10,NEOPLASIA,TRUE
1147,10,NEOPLASIA,TRUE
1167,10,BONE & JOINT DISEASE,TRUE
1171,10,BONE & JOINT DISEASE,TRUE
1184,10,TRAUMA,TRUE
1206,10,NEPHRITIS,TRUE
1242,10,BONE & JOINT DISEASE,TRUE
1243,10,NEOPLASIA,TRUE
1295,10,NEOPLASIA,TRUE
1306,10,BONE & JOINT DISEASE,TRUE
1328,10,SEPTICEMIA,TRUE
1420,10,NEURO. DISEASE,TRUE
1422,10,NEOPLASIA,TRUE
1425,10,PNEUMONIA,TRUE
1426,10,CONGEN. DEF,TRUE
1427,10,DEGENERATION,TRUE
1428,10,DEGENERATION,TRUE
1431,10,NEOPLASIA,TRUE
1432,10,INFLAM. DISEASE,TRUE
1527,10,PERINATAL DEATH,TRUE
1541,10,TRAUMA,TRUE
1571,10,NEOPLASIA,TRUE
1609,10,NEOPLASIA,TRUE
1618,10,PERINATAL DEATH,TRUE
1619,10,PERINATAL DEATH,TRUE
1701,10,NEPHRITIS,TRUE
1703,10,NEPHRITIS,TRUE
1723,10,BONE & JOINT DISEASE,TRUE
1729,10,BONE & JOINT DISEASE,TRUE
1730,10,INFLAM. DISEASE,TRUE
1816,10,NEOPLASIA,TRUE
1849,10,TRAUMA,TRUE
1851,10,DEGENERATION,TRUE
1852,10,NEOPLASIA,TRUE
1854,10,NEOPLASIA,TRUE
1860,10,NEOPLASIA,TRUE
1865,10,CONGEN. DEF,TRUE
1872,10,NEOPLASIA,TRUE
1894,10,BONE & JOINT DISEASE,TRUE
1896,10,NEOPLASIA,TRUE
1915,10,NEOPLASIA,TRUE
1958,10,PERINATAL DEATH,TRUE
1978,10,ANESTHESIA,TRUE
1990,10,NEOPLASIA,TRUE
1991,10,NEOPLASIA,TRUE
1993,10,NEOPLASIA,TRUE
1995,10,CONGEN. DEF,TRUE
1996,10,CARDIOSIS,TRUE
1997,10,DEGENERATION,TRUE
1999,10,CARDIOSIS,TRUE
2003,10,NEPHRITIS,TRUE
2017,10,HYPERPLASIA,TRUE
2039,10,NEPHRITIS,TRUE
2040,10,ANESTHESIA,TRUE
2041,10,PNEUMONIA,TRUE
2042,10,CONGEN. DEF,TRUE
2043,10,TRAUMA,TRUE
2044,10,CONGEN. DEF,TRUE
2065,10,TRAUMA,TRUE
2074,10,NEOPLASIA,TRUE
2101,10,NEOPLASIA,TRUE
2102,10,PERINATAL DEATH,TRUE
2219,10,NEOPLASIA,TRUE
2225,10,NEOPLASIA,TRUE
2227,10,NEOPLASIA,TRUE
2310,10,NEOPLASIA,TRUE
2311,10,TRAUMA,TRUE
2381,10,TRAUMA,TRUE
2393,10,NEOPLASIA,TRUE
2429,10,BONE & JOINT DISEASE,TRUE
2430,10,NEOPLASIA,TRUE
2431,10,NEPHRITIS,TRUE
2432,10,PNEUMONIA,TRUE
2456,10,NEOPLASIA,TRUE
2468,10,DEGENERATION,TRUE
2469,10,HERNIATION,TRUE
2499,10,NEOPLASIA,TRUE
2533,10,SEPTICEMIA,TRUE
2537,10,BONE & JOINT DISEASE,TRUE
2573,10,NEOPLASIA,TRUE
2582,10,NEPHRITIS,TRUE
2598,10,NEOPLASIA,TRUE
2644,10,NEOPLASIA,TRUE
2645,10,NEOPLASIA,TRUE
2656,10,INFLAM. DISEASE,TRUE
2657,10,ANESTHESIA,TRUE
2658,10,TRAUMA,TRUE
2659,10,NEOPLASIA,TRUE
2662,10,DEGENERATION,TRUE
2664,10,NEOPLASIA,TRUE
2676,10,NEOPLASIA,TRUE
2677,10,NEOPLASIA,TRUE
2687,10,DEGENERATION,TRUE
2688,10,ANESTHESIA,TRUE
2691,10,NEOPLASIA,TRUE
2745,10,CYST,TRUE
2746,10,NEOPLASIA,TRUE
2787,10,BONE & JOINT DISEASE,TRUE
2797,10,TRAUMA,TRUE
2866,10,NEOPLASIA,TRUE
2889,10,GASTROENTERITIS,TRUE
2895,10,NEOPLASIA,TRUE
2919,10,DEGENERATION,TRUE
2963,10,NEOPLASIA,TRUE
3010,10,NEPHRITIS,TRUE
3021,10,TRAUMA,TRUE
3023,10,BONE & JOINT DISEASE,TRUE
3024,10,NEOPLASIA,TRUE
3118,10,BONE & JOINT DISEASE,TRUE
3120,10,PERINATAL DEATH,TRUE
3124,10,NEOPLASIA,TRUE
3125,10,BONE & JOINT DISEASE,TRUE
3258,10,NEPHRITIS,TRUE
3267,10,PNEUMONIA,TRUE
3282,10,PERINATAL DEATH,TRUE
3283,10,PERINATAL DEATH,TRUE
3285,10,PERINATAL DEATH,TRUE
3299,10,NEURO. DISEASE,TRUE
3300,10,CONGEN. DEF,TRUE
3341,10,ANESTHESIA,TRUE
3343,10,NEOPLASIA,TRUE
3344,10,SEPTICEMIA,TRUE
3411,10,NEPHRITIS,TRUE
3458,10,ANESTHESIA,TRUE
3459,10,PERINATAL DEATH,TRUE
3460,10,BONE & JOINT DISEASE,TRUE
3600,10,DEGENERATION,TRUE
3610,10,HYPOGLYCEMIA,TRUE
3617,10,GASTROENTERITIS,TRUE
3622,10,NEOPLASIA,TRUE
3706,10,NEPHRITIS,TRUE
3758,10,TRAUMA,TRUE
3796,10,CARDIOSIS,TRUE
3797,10,DEGENERATION,TRUE
3890,10,PERINATAL DEATH,TRUE
3929,10,INFLAM. DISEASE,TRUE
3958,10,NEOPLASIA,TRUE
3970,10,PERINATAL DEATH,TRUE
3971,10,TRAUMA,TRUE
3989,10,INFLAM. DISEASE,TRUE
4043,10,NEOPLASIA,TRUE
4046,10,PERINATAL DEATH,TRUE
4064,10,PERINATAL DEATH,TRUE
4072,10,TRAUMA,TRUE
4249,10,TRAUMA,TRUE
4295,10,PNEUMONIA,TRUE
4296,10,PERINATAL DEATH,TRUE
4297,10,ANESTHESIA,TRUE
4298,10,PERINATAL DEATH,TRUE
4411,10,DEGENERATION,TRUE
4414,10,PERINATAL DEATH,TRUE
4455,10,PERINATAL DEATH,TRUE
4602,10,TRAUMA,TRUE
4751,10,PNEUMONIA,TRUE
4932,10,TRAUMA,TRUE
4988,10,HEMORRHAGE,TRUE
5051,10,PNEUMONIA,TRUE
5052,10,TRAUMA,TRUE
5078,10,PERINATAL DEATH,TRUE
5088,10,NEOPLASIA,TRUE
5199,10,ANESTHESIA,TRUE
T9312,10,HEPATITIS,TRUE
T9313,10,TRAUMA,TRUE
T9314,10,TRAUMA,TRUE